Chapter 20 Cookbook | Welcome!
…
In this command we specify the columns march, may, and july are all levels of a single variable called occasion. We specify the columns involved with the cols argument. The code pizza_hot:burger_cold after the cols argument selects the pizza_hot column, the burger_cold column, and all the columns in between. Each column contains taste ratings at a combination of the levels for the variables food_type and temperature. The names_to argument is used to indicate that two new columns should be created to represent food and temperature. Notice the order food then temperature. This is consistent with our naming convention; in the column name pizza_hot the food_type is specified before temperature. The value_to argument is used to indicate that a new column called taste should created to hold all the values from the pizza_hot, pizza_cold, steak_hot, steak_cold, burger_hot, and burger_cold columns.

analytic_data_nway_tidy <- analytic_data_within_nway %>%
  pivot_longer(cols = pizza_hot:burger_cold,
               names_to = c("food_type", "temperature"),
               names_sep = "_",
               values_to = "taste"
  )

You can see the data in the new format below.

print(analytic_data_nway_tidy)

## # A tibble: 36 × 5
##    id    sex    food_type temperature taste
##    <fct> <fct>  <chr>     <chr>       <dbl>
##  1 1     male   pizza     hot             7
##  2 1     male   pizza     cold            6
##  3 1     male   steak     hot             6
##  4 1     male   steak     cold            3
##  5 1     male   burger    hot             7
##  6 1     male   burger    cold            4
##  7 2     female pizza     hot             8
##  8 2     female pizza     cold            7
##  9 2     female steak     hot             6
## 10 2     female steak     cold            3
## # ℹ 26 more rows
…
20.9.5 Pivot to tidy data

The analytic data in its current form does not conform to the tidy data specification. Inspect the data with the print() command.
Notice that a single column is not used to represent esteem, jobsat, or time. Rather, there are four columns that are a mix of these variables. The consequence of this is that there are two esteem ratings/observations on each row and two jobsat ratings/observations on each row. Tidy data is structured so that each variable is represented in a single column and each observation has its own row.

print(analytic_data_occasions)

## # A tibble: 300 × 8
##    id      age sex   eye_color esteem_t1 esteem_t2 jobsat_t1
##    <fct> <dbl> <fct> <fct>         <dbl>     <dbl>     <dbl>
##  1 1        23 male  blue            3.2       3.8      4   
##  2 2        22 fema… brown           3.8       4.4      5   
##  3 3        18 male  hazel           3.8       4.4      4.4 
##  4 4        23 fema… blue            3         3.6      3.5 
##  5 5        22 male  <NA>            3.4       4        4   
##  6 6        17 fema… hazel           3.5       4.2      3.8 
##  7 7        23 male  blue            3         3.6      3.6 
##  8 8        22 fema… brown           3.8       4.4      4.6 
##  9 9        17 male  hazel           3.6       4.2      3.75
## 10 10       NA fema… blue            3.6       4.2      3.8 
## # ℹ 290 more rows
## # ℹ 1 more variable: jobsat_t2 <dbl>

The pivot_longer() command below coverts our data to the tidy data format. In this command we specify the columns with data by using esteem_t1:jobsat_t2; this selects these two columns and all of the columns between them. Each of these columns represents a dependent variable at a particular time in the format “variable_time” (e.g., esteem_t1). The code names_to = c(“.value”, “time”) explains this format to R. It indicates that the first part of the column name (e.g., esteem) contains the name of the variable (expressed in the code as “.value”). It also indicates that the second part of the column name represents time. The line names_sep = “_” tells the R that the underscore character is used to separate the first part of the name from the second part of the name. When this code is executed it creates a tidy version of data set stored in analytic_survey_tidy.

analytic_occasion_tidy <- analytic_data_occasions %>%
  pivot_longer(esteem_t1:jobsat_t2,
               names_to = c(".value", "time"),
               names_sep = "_")

You can see the new data with the print() command. Notice that each participant has multiple rows associated with them.

print(analytic_occasion_tidy)

## # A tibble: 600 × 7
##    id      age sex    eye_color time  esteem jobsat
##    <fct> <dbl> <fct>  <fct>     <chr>  <dbl>  <dbl>
##  1 1        23 male   blue      t1       3.2   4   
##  2 1        23 male   blue      t2       3.8   3.8 
##  3 2        22 female brown     t1       3.8   5   
##  4 2        22 female brown     t2       4.4   4   
##  5 3        18 male   hazel     t1       3.8   4.4 
##  6 3        18 male   hazel     t2       4.4   4.6 
##  7 4        23 female blue      t1       3     3.5 
##  8 4        23 female blue      t2       3.6   4.2 
##  9 5        22 male   <NA>      t1       3.4   4   
## 10 5        22 male   <NA>      t2       4     3.75
## # ℹ 590 more rows
…
