Chapter 1 Introduction | Psychology 6060
…
Notice that when you print a tibble it DOES show you the number of rows and columns. As well, the tibble only provides the first few rows of output so it doesn’t fill your screen.

my_tibble <- read_csv(file = "data_okcupid_heights.csv", 
                    na = c("", "NA", "-999"))

## Parsed with column specification:
## cols(
##   sex = col_character(),
##   height = col_double()
## )

print(my_tibble)

## # A tibble: 59,826 x 2
##    sex   height
##    <chr>  <dbl>
##  1 male      75
##  2 male      70
##  3 male      68
##  4 male      71
##  5 male      66
##  6 male      67
##  7 male      65
##  8 male      70
##  9 male      72
## 10 male      72
## # … with 59,816 more rows
…
